[header]
width=8
height=8
tilewidth=32
tileheight=32
orientation=orthogonal

[tilesets]
tileset=../../textures/tiles/castleFg.png,32,32,0,0

[layer]
type=Background
data=
0,0,0,0,0,0,0,0,
0,0,0,0,0,0,0,0,
0,0,0,0,93,95,96,0,
0,99,100,0,0,110,111,0,
0,114,115,0,0,109,126,0,
0,129,130,0,0,110,111,19,
0,0,0,0,0,109,126,34,
0,0,0,0,0,109,110,34

[layer]
type=Props
data=
0,0,0,0,0,0,0,0,
0,0,0,0,0,0,0,0,
0,0,0,0,0,0,0,0,
0,0,0,0,0,0,0,0,
0,0,0,0,0,0,0,0,
0,0,0,0,0,0,0,0,
0,0,0,0,0,0,0,0,
0,0,0,0,0,0,0,0

[layer]
type=Collision
data=
0,0,0,0,0,0,0,0,
0,0,0,0,0,0,0,0,
0,0,0,0,0,0,0,0,
25,59,29,19,25,0,0,0,
40,0,0,34,40,0,0,0,
40,0,0,34,40,0,0,19,
36,20,20,37,40,0,0,34,
35,35,35,35,40,58,58,34

[layer]
type=Foreground
data=
0,0,0,0,0,0,0,0,
0,0,0,0,0,0,0,0,
0,0,0,0,0,0,0,0,
0,0,0,0,0,0,0,0,
0,0,0,0,0,0,0,0,
0,0,0,0,0,0,0,0,
0,0,0,0,0,0,0,0,
0,0,0,0,0,0,0,0

