[header]
width=8
height=8
tilewidth=32
tileheight=32
orientation=orthogonal

[tilesets]
tileset=../../textures/tiles/castleFg.png,32,32,0,0

[layer]
type=Background
data=
0,0,0,0,0,0,0,0,
0,0,0,0,0,93,96,0,
0,93,94,94,95,138,126,0,
0,108,109,109,109,110,109,110,
0,123,109,110,110,110,109,110,
0,103,104,125,0,0,0,0,
0,118,119,111,0,0,0,0,
0,133,134,126,0,0,0,0

[layer]
type=Props
data=
0,0,0,0,0,0,0,0,
0,0,0,0,0,0,0,0,
0,0,0,0,0,0,0,0,
0,0,0,0,0,0,0,0,
0,0,0,0,0,0,0,0,
0,0,0,0,0,0,0,0,
0,0,0,0,0,0,0,0,
0,0,0,0,0,0,0,0

[layer]
type=Collision
data=
0,0,0,0,0,0,0,0,
0,0,0,0,0,0,0,19,
0,0,0,0,0,0,0,34,
0,0,0,0,0,0,0,0,
0,0,0,0,0,0,0,0,
25,0,0,0,19,20,20,20,
40,0,0,0,34,35,35,35,
40,0,0,0,0,0,0,34

[layer]
type=Foreground
data=
0,0,0,0,0,0,0,0,
0,0,0,0,0,0,0,0,
0,0,0,0,0,0,0,0,
0,0,0,0,0,0,0,0,
0,0,0,0,0,0,0,0,
0,0,0,0,0,0,0,0,
0,0,0,0,0,0,0,0,
0,0,0,0,0,0,0,0

