[header]
width=8
height=8
tilewidth=32
tileheight=32
orientation=orthogonal

[tilesets]
tileset=../../textures/tiles/castleFg.png,32,32,0,0

[layer]
type=Background
data=
0,0,0,0,0,93,95,96,
0,0,0,0,0,108,125,0,
0,0,0,0,0,108,110,0,
0,0,0,0,0,123,109,110,
0,0,0,0,0,123,109,110,
0,0,0,0,0,0,0,0,
0,0,0,0,0,0,0,0,
0,94,95,96,0,0,0,0

[layer]
type=Props
data=
0,0,0,0,0,0,0,0,
0,0,0,0,0,0,0,0,
0,0,0,0,0,0,0,0,
0,0,0,0,0,0,0,0,
0,0,0,0,0,0,0,0,
0,0,0,0,0,0,0,0,
0,0,0,0,0,0,0,0,
0,0,0,0,0,0,0,0

[layer]
type=Collision
data=
0,0,0,0,0,0,0,0,
0,0,0,0,0,0,0,19,
0,0,0,0,0,0,0,34,
0,0,0,0,0,0,0,0,
0,0,0,0,0,0,0,0,
25,58,58,58,19,20,20,20,
40,0,0,0,34,35,35,35,
40,0,0,0,0,34,35,35

[layer]
type=Foreground
data=
0,0,0,0,0,0,0,0,
0,0,0,0,0,0,0,0,
0,0,0,0,0,0,0,0,
0,0,0,0,0,0,0,0,
0,0,0,0,0,0,0,0,
0,0,0,0,0,0,0,0,
0,0,0,0,0,0,0,0,
0,0,0,0,0,0,0,0

