[header]
width=8
height=8
tilewidth=32
tileheight=32
orientation=orthogonal

[tilesets]
tileset=../../textures/tiles/castleFg.png,32,32,0,0

[layer]
type=Background
data=
0,0,0,0,0,0,0,0,
0,0,96,0,0,0,0,0,
99,100,111,0,0,0,0,0,
114,115,111,0,0,0,0,0,
129,130,109,94,0,0,0,0,
0,0,109,110,0,0,0,0,
0,0,0,109,109,110,0,0,
0,0,0,0,0,0,0,0

[layer]
type=Props
data=
0,0,0,0,0,0,0,0,
0,0,0,0,0,0,0,0,
0,0,0,0,0,0,0,0,
0,0,0,0,0,8,0,0,
0,0,0,0,0,0,0,0,
0,0,0,0,0,0,0,0,
0,0,0,0,0,0,0,0,
0,0,0,0,0,0,0,0

[layer]
type=Collision
data=
0,0,0,0,0,0,0,0,
20,25,0,0,0,0,0,0,
35,40,0,0,0,0,0,0,
0,0,0,0,0,0,0,0,
0,0,0,0,19,23,25,0,
20,20,25,58,34,38,40,0,
35,35,36,20,37,35,40,0,
35,35,35,35,35,35,40,0

[layer]
type=Foreground
data=
0,0,0,0,0,0,0,0,
0,0,0,0,0,0,0,0,
0,0,0,0,0,0,0,0,
0,0,0,0,0,0,0,0,
0,0,0,0,0,0,0,0,
0,0,0,0,0,0,0,0,
0,0,0,0,0,0,0,0,
0,0,0,0,0,0,0,0

