# cube.obj
#

o cube
mtllib cube.mtl

v  -0.5  -0.5  -0.5   v1 = back lower left (origin)
v  -0.5  -0.5  0.5   v2 = front lower left
v  -0.5  0.5  -0.5   v3 = back upper left
v  -0.5  0.5  0.5   v4 = front upper left
v  0.5  -0.5  -0.5   v5 = back lower right
v  0.5  -0.5  0.5   v6 = front lower right
v  0.5  0.5  -0.5   v7 = back upper right
v  0.5  0.5  0.5   v8 = front upper right

vt 0.0 0.0  # vt=1 is upper left of texture
vt 0.0 1.0  # vt=2 is lower left of texture
vt 1.0 0.0  # vt=3 is upper right of texture
vt 1.0 1.0  # vt=4 is lower right of texture

vn  0.0  0.0  1.0
vn  0.0  0.0 -1.0
vn  0.0  1.0  0.0
vn  0.0 -1.0  0.0
vn  1.0  0.0  0.0
vn -1.0  0.0  0.0

g cube
usemtl cube
s 1
f 1/1/2 7/4/2 5/2/2
f 1/1/2 3/3/2 7/4/2
s 2
f 1/2/6 4/3/6 3/1/6
f 1/2/6 2/4/6 4/3/6
s 3
f 3/1/3 8/4/3 7/3/3
f 3/1/3 4/2/3 8/4/3
s 4
f 5/4/5 7/3/5 8/1/5
f 5/4/5 8/1/5 6/2/5
s 5
f 1/2/4 5/4/4 6/3/4
f 1/2/4 6/3/4 2/1/4
s 6
f 2/2/1 6/4/1 8/3/1
f 2/2/1 8/3/1 4/1/1