[header]
width=8
height=8
tilewidth=32
tileheight=32
orientation=orthogonal

[tilesets]
tileset=../../textures/tiles/castleFg.png,32,32,0,0

[layer]
type=Background
data=
0,0,0,0,0,0,0,0,
0,0,0,0,0,0,0,108,
96,0,0,0,93,95,96,108,
111,0,0,0,0,0,0,108,
126,0,0,0,0,0,0,123,
111,0,0,0,0,0,0,0,
111,0,93,94,0,0,0,0,
126,0,108,110,109,141,0,0

[layer]
type=Props
data=
0,0,0,0,0,0,0,0,
0,0,0,0,0,0,0,0,
0,0,0,0,0,0,0,0,
0,0,0,0,0,0,0,0,
0,0,0,0,0,0,0,0,
0,0,0,0,0,0,0,0,
0,0,0,0,0,0,0,0,
0,0,0,0,0,0,0,0

[layer]
type=Collision
data=
36,20,20,25,0,0,29,34,
0,34,40,0,0,0,0,0,
0,0,0,0,0,0,0,0,
0,0,0,58,19,20,25,0,
0,0,0,0,34,35,40,0,
58,58,58,29,34,35,36,20,
0,0,0,0,34,35,35,35,
0,0,0,0,0,0,34,35

[layer]
type=Foreground
data=
0,0,0,0,0,0,0,0,
0,0,0,0,0,0,0,0,
0,0,0,0,0,0,0,0,
0,0,0,0,0,0,0,0,
0,0,0,0,0,0,0,0,
0,0,0,0,0,0,0,0,
0,0,0,0,0,0,0,0,
0,0,0,0,0,0,0,0

