[header]
width=8
height=8
tilewidth=32
tileheight=32
orientation=orthogonal

[tilesets]
tileset=../../textures/tiles/castleFg.png,32,32,0,0
tileset=../../textures/tiles/castleFg.png,32,32,0,0
tileset=../../textures/tiles/castleFg.png,32,32,0,0

[layer]
type=Background
data=
0,0,0,0,0,439,440,0,
0,0,0,0,0,108,110,111,
0,0,0,0,93,138,110,141,
0,0,93,94,138,109,109,110,
0,0,0,0,109,110,109,110,
441,0,108,109,111,0,0,109,
441,0,108,109,126,0,0,109,
0,0,439,441,0,0,0,110

[layer]
type=Props
data=
0,0,0,0,0,0,0,0,
0,0,0,0,0,0,0,0,
0,0,0,0,0,0,0,0,
0,0,0,0,0,0,0,0,
0,0,0,0,0,0,0,0,
0,0,0,0,0,0,0,0,
0,0,0,0,0,0,0,0,
0,0,0,0,0,0,0,0

[layer]
type=Collision
data=
365,365,365,365,370,0,0,364,
365,0,0,0,0,0,0,0,
365,0,0,0,0,0,0,0,
370,0,0,0,0,0,0,0,
370,29,19,25,0,0,0,0,
0,0,0,0,0,19,25,192,
0,0,0,0,0,34,40,0,
350,350,20,20,20,37,35,0

[layer]
type=Foreground
data=
0,0,0,0,0,0,0,0,
0,0,0,0,0,0,0,0,
0,0,0,0,0,0,0,0,
0,0,0,0,0,0,0,0,
0,0,0,0,0,0,0,0,
0,0,0,0,0,0,0,0,
0,0,0,0,0,0,0,0,
0,0,0,0,0,0,0,0

